{
  "name": "ameren-mobile-first",
  "description": "Ameren Mobile First Redesign Project",
  "version": "0.1.0",
  "homepage": "",
  "author": {
    "name": "Zach Handing",
    "url": "zach.handing@perficient.com"
  },
  "repository": {
    "type": "git",
    "url": ""
  },
  "bugs": {
    "url": ""
  },
  "engines": {
    "node": ">=0.10"
  },
  "scripts": {
    "test": "grunt assemble"
  },
  "devDependencies": {
    "@babel/core": "^7.8.4",
    "assemble": "^0.24.3",
    "autoprefixer": "^6.7.7",
    "babelify": "^10.0.0",
    "browserify": "^16.5.0",
    "grunt": "^0.4.5",
    "grunt-assemble": "^0.6.3",
    "grunt-browser-sync": "^2.2.0",
    "grunt-contrib-clean": "^0.6.0",
    "grunt-contrib-concat": "0.5.1",
    "grunt-contrib-copy": "^0.5.0",
    "grunt-contrib-cssmin": "0.8.0",
    "grunt-contrib-handlebars": "0.10.0",
    "grunt-contrib-sass": "0.9.2",
    "grunt-contrib-watch": "^0.6.1",
    "grunt-neuter": "",
    "grunt-postcss": "^0.8.0",
    "gulp": "^4.0.2",
    "gulp-clean-css": "^4.2.0",
    "gulp-concat": "^2.6.1",
    "gulp-hbs": "^0.2.0",
    "gulp-jshint": "^2.1.0",
    "gulp-qunit": "^2.1.1",
    "gulp-rename": "^2.0.0",
    "gulp-sass": "^4.0.2",
    "gulp-uglify": "^3.0.2",
    "gulp-wrap": "^0.15.0",
    "handlebars": "^4.7.3",
    "handlebars-helpers": "^0.10.0",
    "jshint": "^2.11.0",
    "load-grunt-tasks": "^0.6.0",
    "qunitjs": "^2.4.1",
    "sweetalert": "^2.1.2",
    "time-grunt": "^1.0.0",
    "undertaker": "^1.2.1",
    "vinyl-buffer": "^1.0.1",
    "vinyl-source-stream": "^2.0.0"
  },
  "licenses": [
    {
      "type": "MIT",
      "url": ""
    }
  ],
  "keywords": [
    "assemble",
    "templates",
    "handlebars",
    "site generator",
    "site builder",
    "grunt"
  ],
  "dependencies": {}
}
