{
  "directions": true,
  "title": "Schnucks",
  "address-line-1": "187 Walker Ave",
  "city": "Hilltop",
  "state": "MO",
  "zipcode": "10807",
  "hours": "Mon-Sun: 7:00am-8:00pm",
  "phone": "636-498-0108",
  "distance": ".25 mi"
}
