{
  "default": {
    "text": "Default Button"
  },
  "default--disabled": {
    "text": "Disabled Default",
    "disabled": true
  },
  "primary": {
    "text": "Primary Action",
    "theme": "primary"
  },
  "primary--disabled": {
    "text": "Disabled Primary",
    "theme": "primary",
    "disabled": true
  },
  "secondary": {
    "text": "Secondary Button",
    "theme": "secondary"
  },
  "secondary--disabled": {
    "text": "Disabled Secondary",
    "theme": "secondary",
    "disabled": true
  },
  "cancel": {
    "text": "Cancel",
    "theme": "cancel"
  },
  "cancel--disabled": {
    "text": "Cancel",
    "theme": "cancel",
    "disabled": true
  },
  "delete": {
    "text": "Delete",
    "theme": "delete"
  },
  "delete--disabled": {
    "text": "Delete",
    "theme": "delete",
    "disabled": true
  },
  "large": {
    "text": "Large Button",
    "theme": "primary btn-lg"
  },
  "small": {
    "text": "Small Button",
    "theme": "primary btn-sm"
  },
  "button-block": {
    "text": "Block Button",
    "theme": "default btn-block"
  },
  "button-block-xs": {
    "text": "Block Only Mobile",
    "theme": "default btn-block-xs"
  },
  "button-link": {
    "text": "Button as Link",
    "theme": "link"
  }
}
