{
  "text-input": {
    "label": "Text input",
    "type": "text",
    "id": "text-input",
    "name": "text-input",
    "required": true
  },
  "text-input-with-popover": {
    "label": "Text input with info popover",
    "type": "text",
    "id": "text-input-with-popover",
    "popover": "Your SSN is needed to verify your identity. Ameren will never give out personal information to third parties."
  },
  "password-with-helper-text": {
    "label": "Password with helper text",
    "type": "password",
    "id": "password-with-helper-text",
    "helper-text": "This is an input field with helper text.",
    "required": true
  },
  "date-picker": {
    "label": "Date Picker",
    "type": "date",
    "id": "date"
  },
  "select": {
    "label": "Select",
    "id": "select",
    "name": "select",
    "options": [
      {
        "value": "",
        "text": "-- Select an option --"
      },
      {
        "text": "Lorem ipsum"
      },
      {
        "text": "dolor sit amet"
      },
      {
        "text": "consectetur adipisicing elit"
      },
      {
        "text": "sed do eiusmod tempor"
      },
      {
        "text": "incididunt ut labore"
      }
    ]
  },
  "textarea": {
    "label": "Textarea",
    "id": "textarea",
    "name": "textarea",
    "placeholder": "Enter your message or question here..."
  },
  "checkbox-group": {
    "legend": "Checkbox Group",
    "id": "checkbox-group",
    "checkboxes": [
      {
        "label": "Checkbox 1"
      },
      {
        "label": "Checkbox 2"
      },
      {
        "label": "Checkbox 3"
      }
    ]
  },
  "radio-group": {
    "legend": "Radio Group",
    "id": "radio-group",
    "radios": [
      {
        "label": "Radio 1"
      },
      {
        "label": "Radio 2"
      },
      {
        "label": "Radio 3"
      }
    ]
  },
  "radio-group-outlined": {
    "legend": "Radio Group Outlined",
    "id": "radio-group-outlined",
    "radios": [
      {
        "label": "Use My Address",
        "class": "radio--outlined",
        "helper": "555 Streetname Dr<br>Townsville, MO 55555"
      },
      {
        "label": "Enter a Different Address",
        "class": "radio--outlined"
      }
    ]
  },
  "radio-pill-group": {
    "legend": "Radio Pill Group",
    "id": "bank-account-type",
    "radios": [
      {
        "label": "Checking"
      },
      {
        "label": "Savings"
      },
      {
        "label": "Money Market"
      }
    ]
  },
  "checkbox-panel": {
    "legend": "Checkbox Input Panel",
    "id": "checkbox-input-panel",
    "type": "checkbox",
    "inputs": [
      {
        "label": "Really Long Panel Name"
      },
      {
        "label": "Option 2"
      },
      {
        "label": "Option 3"
      },
      {
        "label": "Option 4"
      },
      {
        "label": "Option 5"
      },
      {
        "label": "Option 6"
      }
    ]
  },
  "radio-panel": {
    "legend": "Radio Input Panel",
    "id": "radio-input-panel",
    "type": "radio",
    "inputs": [
      {
        "label": "Really Long Panel Name"
      },
      {
        "label": "Option 2"
      },
      {
        "label": "Option 3"
      },
      {
        "label": "Really Long Panel Name"
      },
      {
        "label": "Option 5"
      },
      {
        "label": "Option 6"
      }
    ]
  }
}
