﻿{
  "type": "inline",
  "list": [
    {
      "name": "Account Overview",
      "link": "#"
    },
    {
      "name": "Billing & Usage",
      "link": "#"
    },
    {
      "name": "Payments",
      "link": "#"
    },
    {
      "name": "Start/Stop Service",
      "link": "#"
    },
    {
      "name": "Profile & Preferences",
      "link": "#"
    }
  ]
}
