{
    "two-column": {
        "title": "Helpful Saving Energy & Money Information",
        "columns": "2",
        "carousel-items": [
            {
                "media": {
                    "src": "http://via.placeholder.com/800x400?text=Media",
                    "alt": "Placeholder image"
                },
                "title": "Natural Gas Programs",
                "description": "The program offers rebates for a portion of the cost of purchasing and installing highly efficient measures.",
                "link": {
                    "href": "#",
                    "text": "Learn More"
                }
            },
            {
                "media": {
                    "src": "http://via.placeholder.com/800x400?text=Media",
                    "alt": "Placeholder image"
                },
                "title": "Trade Allies Programs",
                "description": "Join the network of contractors, suppliers, engineers and design professionals who are growing their businesses by leveraging BizSavers incentives for energy efficiency projects.",
                "link": {
                    "href": "#",
                    "text": "Learn More"
                }
            },
            {
                "media": {
                    "src": "http://via.placeholder.com/800x400?text=Media",
                    "alt": "Placeholder image"
                },
                "title": "Energy Efficiency Analysis",
                "description": "Learn how an Ameren Missouri HVAC Efficiency Analysis benefits you. This analysis determines how efficiently your system is operating and can help you make an informed decision on whether repairing or replacing your HVAC equipment can help you save energy and money.",
                "link": {
                    "href": "#",
                    "text": "Learn More"
                }
            },
            {
                "media": {
                    "src": "http://via.placeholder.com/800x400?text=Media",
                    "alt": "Placeholder image"
                },
                "title": "Find a Retailer",
                "description": "Ameren can help you find retailers who are are already familiar with energy saving products and our rebate programs.",
                "link": {
                    "href": "#",
                    "text": "Learn More"
                }
            }
        ]
    },
    "three-column": {
        "title": "Helpful Saving Energy & Money Information",
        "columns": "3",
        "carousel-items": [
            {
                "media": {
                    "src": "http://via.placeholder.com/800x400?text=Media",
                    "alt": "Placeholder image"
                },
                "title": "Natural Gas Programs",
                "description": "The program offers rebates for a portion of the cost of purchasing and installing highly efficient measures.",
                "link": {
                    "href": "#",
                    "text": "Learn More"
                }
            },
            {
                "media": {
                    "src": "http://via.placeholder.com/800x400?text=Media",
                    "alt": "Placeholder image"
                },
                "title": "Trade Allies Programs",
                "description": "Join the network of contractors, suppliers, engineers and design professionals who are growing their businesses by leveraging BizSavers incentives for energy efficiency projects.",
                "link": {
                    "href": "#",
                    "text": "Learn More"
                }
            },
            {
                "media": {
                    "src": "http://via.placeholder.com/800x400?text=Media",
                    "alt": "Placeholder image"
                },
                "title": "Energy Efficiency Analysis",
                "description": "Learn how an Ameren Missouri HVAC Efficiency Analysis benefits you. This analysis determines how efficiently your system is operating and can help you make an informed decision on whether repairing or replacing your HVAC equipment can help you save energy and money.",
                "link": {
                    "href": "#",
                    "text": "Learn More"
                }
            },
            {
                "media": {
                    "src": "http://via.placeholder.com/800x400?text=Media",
                    "alt": "Placeholder image"
                },
                "title": "Find a Retailer",
                "description": "Ameren can help you find retailers who are are already familiar with energy saving products and our rebate programs.",
                "link": {
                    "href": "#",
                    "text": "Learn More"
                }
            }
        ]
    }
}