{
  "horizontal-blue": {
    "type": "inline",
    "list": [
      {
        "name": "<svg viewBox=\"0 0 24 24\"><title>Paybill</title><g><path d=\"M17.78,7.57,21.3,9.65a.49.49,0,0,1,.2.34v9.78a1.86,1.86,0,0,1-1.72,1.73H4.22A1.86,1.86,0,0,1,2.5,19.77V10a.49.49,0,0,1,.2-.34L6.22,7.57\"/><path d=\"M6.55,12.88V4.23A1.9,1.9,0,0,1,8.35,2.5h7.3a1.9,1.9,0,0,1,1.8,1.73v8.65\"/><path d=\"M21.45,10.44l-9.14,6a.53.53,0,0,1-.52,0l-9.26-6\"/><g><line x1=\"12\" y1=\"12.05\" x2=\"12\" y2=\"12.72\"/><line x1=\"12\" y1=\"5.95\" x2=\"12\" y2=\"5.28\"/><path d=\"M13.41,7.7A1.4,1.4,0,0,0,12,6.17,1.35,1.35,0,0,0,10.59,7.6c0,.83,1,1.21,1.41,1.4s1.41.57,1.41,1.42A1.33,1.33,0,0,1,12,11.83a1.39,1.39,0,0,1-1.41-1.53\"/></g></g></svg>Pay My Bill",
        "link": "pay-my-bill.html"
      },
      {
        "name": "<svg viewBox=\"0 0 24 24\"><title>Outage</title><path d=\"M6.8,21.43a.42.42,0,0,1-.21-.06.41.41,0,0,1-.13-.49l3.41-8.34H7.26A.37.37,0,0,1,7,12.36a.41.41,0,0,1,0-.36l3.65-9.19a.37.37,0,0,1,.35-.24h4.83a.38.38,0,0,1,.32.18.45.45,0,0,1,0,.39L13.25,8.66H17.2a.38.38,0,0,1,.34.24.4.4,0,0,1-.07.42l-10.4,12A.36.36,0,0,1,6.8,21.43Z\"/></svg>Outages",
        "link": "#"
      },
      {
        "name": "<svg viewBox=\"0 0 24 24\"><title>Power</title><line x1=\"12\" y1=\"11.93\" x2=\"12\" y2=\"2.7\"/><path d=\"M16.06,3.54a9.38,9.38,0,1,1-8.1,0\"/></svg>Start Service",
        "link": "start-service.html"
      },
      {
        "name": "<svg viewBox=\"0 0 24 24\"><title>Alerts</title><path d=\"M18.29,18.56H5.71A1.1,1.1,0,0,1,4.6,17.47V16c0-.54.4-.82.83-1.11a5.21,5.21,0,0,0,.76-.6c.57-.55,1-2.48,1.18-5.64a4.47,4.47,0,0,1,4.52-4.19H12A4.6,4.6,0,0,1,16.62,8.8c.16,3,.63,4.95,1.19,5.5a5.21,5.21,0,0,0,.76.6c.43.29.83.57.83,1.11v1.46A1.1,1.1,0,0,1,18.29,18.56Z\"/><path d=\"M13.53,18.52v.59a1.52,1.52,0,0,1-3,0v-.59\"/><g><path d=\"M16.54,4.21a6,6,0,0,1,1.88,3.12\"/><path d=\"M17.73,2.84A9.31,9.31,0,0,1,20.6,7.73\"/></g><g><path d=\"M7.49,4.21A5.93,5.93,0,0,0,5.62,7.33\"/><path d=\"M6.3,2.84A9.31,9.31,0,0,0,3.43,7.73\"/></g></svg>Get Alerts",
        "link": "#"
      }
    ]
  },
  "horizontal-white": {
    "class": "c-quick-links--inverted",
    "type": "inline",
    "list": [
      {
        "name": "<svg viewBox=\"0 0 24 24\"><title>Paybill</title><g><path d=\"M17.78,7.57,21.3,9.65a.49.49,0,0,1,.2.34v9.78a1.86,1.86,0,0,1-1.72,1.73H4.22A1.86,1.86,0,0,1,2.5,19.77V10a.49.49,0,0,1,.2-.34L6.22,7.57\"/><path d=\"M6.55,12.88V4.23A1.9,1.9,0,0,1,8.35,2.5h7.3a1.9,1.9,0,0,1,1.8,1.73v8.65\"/><path d=\"M21.45,10.44l-9.14,6a.53.53,0,0,1-.52,0l-9.26-6\"/><g><line x1=\"12\" y1=\"12.05\" x2=\"12\" y2=\"12.72\"/><line x1=\"12\" y1=\"5.95\" x2=\"12\" y2=\"5.28\"/><path d=\"M13.41,7.7A1.4,1.4,0,0,0,12,6.17,1.35,1.35,0,0,0,10.59,7.6c0,.83,1,1.21,1.41,1.4s1.41.57,1.41,1.42A1.33,1.33,0,0,1,12,11.83a1.39,1.39,0,0,1-1.41-1.53\"/></g></g></svg>Billing & Payments",
        "link": "pay-my-bill.html"
      },
      {
        "name": "<svg viewBox=\"0 0 24 24\"><title>Account</title><g><path d=\"M15.46,7.9a3.47,3.47,0,1,1-6.94,0V7.11a3.47,3.47,0,1,1,6.94,0Z\"/><path d=\"M20.5,20.86a.66.66,0,0,1-.68.64H4.18a.66.66,0,0,1-.68-.64v-.75c0-3.61,3.81-6.45,8.5-6.45s8.5,2.84,8.5,6.45Z\"/></g></svg>Manage Account",
        "link": "#"
      },
      {
        "name": "<svg viewBox=\"0 0 24 24\"><title>Budget Billing</title><g><path d=\"M9.35,16.1a6,6,0,0,0,5.12.08\"/><path d=\"M16.07,6.71l-.32-.11c-2.13-.63-6.29-.67-8.21.21s-3.63,5.25-1.48,7.64\"/><path d=\"M5.16,10.32a3.11,3.11,0,0,1-2.3-1c-.35-.63,0-1.58.74-1.56s1.07,1.9-.14,2.52a2.76,2.76,0,0,1-1.14.41\"/><path d=\"M6.32,13.37a8.71,8.71,0,0,0,0,3.66,4.26,4.26,0,0,0,2.57.29c.51-.17.43-1.61.37-1.84\"/><path d=\"M14.5,15.48a3.64,3.64,0,0,0,.34,1.78,4.43,4.43,0,0,0,2.58.06c.51-.27.49-1.83.43-1.94a13.75,13.75,0,0,0,3.82-2.19c.42-.34.2-3,.06-3.36s-2.07-.27-2.35-.27a3.46,3.46,0,0,0-1.6-2,5.28,5.28,0,0,1,.49-2A6.54,6.54,0,0,0,15.1,7.72\"/><line x1=\"15.5\" y1=\"9.65\" x2=\"16.5\" y2=\"9.65\"/></g><g><line x1=\"11.97\" y1=\"13.94\" x2=\"11.97\" y2=\"14.55\"/><line x1=\"11.97\" y1=\"9.05\" x2=\"11.97\" y2=\"8.44\"/><path d=\"M13.42,10.16a1.36,1.36,0,0,0-1.45-1c-.87,0-1.47.49-1.47,1.19s1,1,1.47,1.17,1.47.47,1.47,1.18-.59,1.18-1.47,1.18a1.36,1.36,0,0,1-1.44-1\"/></g></svg>Ways to Save",
        "link": "start-service.html"
      },
      {
        "name": "<svg viewBox=\"0 0 24 24\"><title>Outage</title><path d=\"M6.8,21.43a.42.42,0,0,1-.21-.06.41.41,0,0,1-.13-.49l3.41-8.34H7.26A.37.37,0,0,1,7,12.36a.41.41,0,0,1,0-.36l3.65-9.19a.37.37,0,0,1,.35-.24h4.83a.38.38,0,0,1,.32.18.45.45,0,0,1,0,.39L13.25,8.66H17.2a.38.38,0,0,1,.34.24.4.4,0,0,1-.07.42l-10.4,12A.36.36,0,0,1,6.8,21.43Z\"/></svg>Report and Outage",
        "link": "#"
      }
    ]
  },
  "vertical-blue": {
    "class": "c-quick-links--vertical",
    "type": "inline",
    "list": [
      {
        "name": "<svg viewBox=\"0 0 24 24\"><title>Paybill</title><g><path d=\"M17.78,7.57,21.3,9.65a.49.49,0,0,1,.2.34v9.78a1.86,1.86,0,0,1-1.72,1.73H4.22A1.86,1.86,0,0,1,2.5,19.77V10a.49.49,0,0,1,.2-.34L6.22,7.57\"/><path d=\"M6.55,12.88V4.23A1.9,1.9,0,0,1,8.35,2.5h7.3a1.9,1.9,0,0,1,1.8,1.73v8.65\"/><path d=\"M21.45,10.44l-9.14,6a.53.53,0,0,1-.52,0l-9.26-6\"/><g><line x1=\"12\" y1=\"12.05\" x2=\"12\" y2=\"12.72\"/><line x1=\"12\" y1=\"5.95\" x2=\"12\" y2=\"5.28\"/><path d=\"M13.41,7.7A1.4,1.4,0,0,0,12,6.17,1.35,1.35,0,0,0,10.59,7.6c0,.83,1,1.21,1.41,1.4s1.41.57,1.41,1.42A1.33,1.33,0,0,1,12,11.83a1.39,1.39,0,0,1-1.41-1.53\"/></g></g></svg>Pay My Bill",
        "link": "pay-my-bill.html"
      },
      {
        "name": "<svg viewBox=\"0 0 24 24\"><title>Outage</title><path d=\"M6.8,21.43a.42.42,0,0,1-.21-.06.41.41,0,0,1-.13-.49l3.41-8.34H7.26A.37.37,0,0,1,7,12.36a.41.41,0,0,1,0-.36l3.65-9.19a.37.37,0,0,1,.35-.24h4.83a.38.38,0,0,1,.32.18.45.45,0,0,1,0,.39L13.25,8.66H17.2a.38.38,0,0,1,.34.24.4.4,0,0,1-.07.42l-10.4,12A.36.36,0,0,1,6.8,21.43Z\"/></svg>Outages",
        "link": "#"
      },
      {
        "name": "<svg viewBox=\"0 0 24 24\"><title>Power</title><line x1=\"12\" y1=\"11.93\" x2=\"12\" y2=\"2.7\"/><path d=\"M16.06,3.54a9.38,9.38,0,1,1-8.1,0\"/></svg>Start Service",
        "link": "start-service.html"
      },
      {
        "name": "<svg viewBox=\"0 0 24 24\"><title>Alerts</title><path d=\"M18.29,18.56H5.71A1.1,1.1,0,0,1,4.6,17.47V16c0-.54.4-.82.83-1.11a5.21,5.21,0,0,0,.76-.6c.57-.55,1-2.48,1.18-5.64a4.47,4.47,0,0,1,4.52-4.19H12A4.6,4.6,0,0,1,16.62,8.8c.16,3,.63,4.95,1.19,5.5a5.21,5.21,0,0,0,.76.6c.43.29.83.57.83,1.11v1.46A1.1,1.1,0,0,1,18.29,18.56Z\"/><path d=\"M13.53,18.52v.59a1.52,1.52,0,0,1-3,0v-.59\"/><g><path d=\"M16.54,4.21a6,6,0,0,1,1.88,3.12\"/><path d=\"M17.73,2.84A9.31,9.31,0,0,1,20.6,7.73\"/></g><g><path d=\"M7.49,4.21A5.93,5.93,0,0,0,5.62,7.33\"/><path d=\"M6.3,2.84A9.31,9.31,0,0,0,3.43,7.73\"/></g></svg>Get Alerts",
        "link": "#"
      }
    ]
  },
  "vertical-white": {
    "class": "c-quick-links--vertical c-quick-links--inverted",
    "type": "inline",
    "list": [
      {
        "name": "<svg viewBox=\"0 0 24 24\"><title>Paybill</title><g><path d=\"M17.78,7.57,21.3,9.65a.49.49,0,0,1,.2.34v9.78a1.86,1.86,0,0,1-1.72,1.73H4.22A1.86,1.86,0,0,1,2.5,19.77V10a.49.49,0,0,1,.2-.34L6.22,7.57\"/><path d=\"M6.55,12.88V4.23A1.9,1.9,0,0,1,8.35,2.5h7.3a1.9,1.9,0,0,1,1.8,1.73v8.65\"/><path d=\"M21.45,10.44l-9.14,6a.53.53,0,0,1-.52,0l-9.26-6\"/><g><line x1=\"12\" y1=\"12.05\" x2=\"12\" y2=\"12.72\"/><line x1=\"12\" y1=\"5.95\" x2=\"12\" y2=\"5.28\"/><path d=\"M13.41,7.7A1.4,1.4,0,0,0,12,6.17,1.35,1.35,0,0,0,10.59,7.6c0,.83,1,1.21,1.41,1.4s1.41.57,1.41,1.42A1.33,1.33,0,0,1,12,11.83a1.39,1.39,0,0,1-1.41-1.53\"/></g></g></svg>Billing & Payments",
        "link": "pay-my-bill.html"
      },
      {
        "name": "<svg viewBox=\"0 0 24 24\"><title>Account</title><g><path d=\"M15.46,7.9a3.47,3.47,0,1,1-6.94,0V7.11a3.47,3.47,0,1,1,6.94,0Z\"/><path d=\"M20.5,20.86a.66.66,0,0,1-.68.64H4.18a.66.66,0,0,1-.68-.64v-.75c0-3.61,3.81-6.45,8.5-6.45s8.5,2.84,8.5,6.45Z\"/></g></svg>Manage Account",
        "link": "#"
      },
      {
        "name": "<svg viewBox=\"0 0 24 24\"><title>Budget Billing</title><g><path d=\"M9.35,16.1a6,6,0,0,0,5.12.08\"/><path d=\"M16.07,6.71l-.32-.11c-2.13-.63-6.29-.67-8.21.21s-3.63,5.25-1.48,7.64\"/><path d=\"M5.16,10.32a3.11,3.11,0,0,1-2.3-1c-.35-.63,0-1.58.74-1.56s1.07,1.9-.14,2.52a2.76,2.76,0,0,1-1.14.41\"/><path d=\"M6.32,13.37a8.71,8.71,0,0,0,0,3.66,4.26,4.26,0,0,0,2.57.29c.51-.17.43-1.61.37-1.84\"/><path d=\"M14.5,15.48a3.64,3.64,0,0,0,.34,1.78,4.43,4.43,0,0,0,2.58.06c.51-.27.49-1.83.43-1.94a13.75,13.75,0,0,0,3.82-2.19c.42-.34.2-3,.06-3.36s-2.07-.27-2.35-.27a3.46,3.46,0,0,0-1.6-2,5.28,5.28,0,0,1,.49-2A6.54,6.54,0,0,0,15.1,7.72\"/><line x1=\"15.5\" y1=\"9.65\" x2=\"16.5\" y2=\"9.65\"/></g><g><line x1=\"11.97\" y1=\"13.94\" x2=\"11.97\" y2=\"14.55\"/><line x1=\"11.97\" y1=\"9.05\" x2=\"11.97\" y2=\"8.44\"/><path d=\"M13.42,10.16a1.36,1.36,0,0,0-1.45-1c-.87,0-1.47.49-1.47,1.19s1,1,1.47,1.17,1.47.47,1.47,1.18-.59,1.18-1.47,1.18a1.36,1.36,0,0,1-1.44-1\"/></g></svg>Ways to Save",
        "link": "start-service.html"
      },
      {
        "name": "<svg viewBox=\"0 0 24 24\"><title>Outage</title><path d=\"M6.8,21.43a.42.42,0,0,1-.21-.06.41.41,0,0,1-.13-.49l3.41-8.34H7.26A.37.37,0,0,1,7,12.36a.41.41,0,0,1,0-.36l3.65-9.19a.37.37,0,0,1,.35-.24h4.83a.38.38,0,0,1,.32.18.45.45,0,0,1,0,.39L13.25,8.66H17.2a.38.38,0,0,1,.34.24.4.4,0,0,1-.07.42l-10.4,12A.36.36,0,0,1,6.8,21.43Z\"/></svg>Report and Outage",
        "link": "#"
      }
    ]
  }  
}