{
  "helper-residential": {
    "title": "Residential",
    "description": "Consectetur adipisicing elit, sed do eiusmod tempor incididunt ut labore et dolore magna aliqua. Ut enim ad minim veniam, quis nostrud exercitation ullamco laboris nisi ut aliquip ex ea commodo consequat.",
    "link": {
      "href": "registration-2.html",
      "text": "Residential"
    }
  },
  "helper-business": {
    "title": "Business",
    "description": "Consectetur adipisicing elit, sed do eiusmod tempor incididunt ut labore et dolore magna aliqua. Ut enim ad minim veniam, quis nostrud exercitation ullamco laboris nisi ut aliquip ex ea commodo consequat.",
    "link": {
      "href": "registration-2.html",
      "text": "Business"
    }
  },
  "helper-property-manager": {
    "title": "Property Manager",
    "description": "Consectetur adipisicing elit, sed do eiusmod tempor incididunt ut labore et dolore magna aliqua. Ut enim ad minim veniam, quis nostrud exercitation ullamco laboris nisi ut aliquip ex ea commodo consequat.",
    "link": {
      "href": "registration-2.html",
      "text": "Property Manager"
    }
  },
  "helper-customer-business-partner": {
    "title": "Customer Business Partner",
    "description": "Consectetur adipisicing elit, sed do eiusmod tempor incididunt ut labore et dolore magna aliqua. Ut enim ad minim veniam, quis nostrud exercitation ullamco laboris nisi ut aliquip ex ea commodo consequat.",
    "link": {
      "href": "registration-2.html",
      "text": "Customer Business Partner"
    }
  }
}
