{
  "background-img": "//dev.perficientdigital.com/ameren-mobile-first/assets/images/content/residential-hero-background.jpg",
  "foreground-img": "//dev.perficientdigital.com/ameren-mobile-first/assets/images/content/residential-house.png",
  "title": "Residential",
  "subtext": "It takes a lot of energy to run a household, and though we can’t help make dinner or get the homework done, we can help ensure the lights are on and the oven is ready. We provide the energy to power your quality of life.",
  "inner-nav-links": {
    "type": "inline",
    "list": [
      {
        "name": "Overview",
        "link": "#"
      },
      {
        "name": "Billing & Payments",
        "link": "#"
      },
      {
        "name": "Save Money & Energy",
        "link": "#"
      },
      {
        "name": "Start/Stop Service",
        "link": "#"
      }
    ]
  }
}
