[
  {
    "title": "19,000 Solar Panels Video",
    "url": "#",
    "image": {
      "src": "//dev.perficientdigital.com/ameren-mobile-first/assets/images/content/farm.png",
      "alt": "Image 1"
    },
    "copy": "<p>Have you ever seen 19,000 solar panels at once? That's the size of 19 football fields. Thanks Fox2now for showcasing our O'Fallon Renewable Energy Center on this morning's flyover.</p>"
  },
  {
    "title": "Bagnell Dam Construction",
    "url": "#",
    "image": {
      "src": "//dev.perficientdigital.com/ameren-mobile-first/assets/images/content/digging.png",
      "alt": "Image 2"
    },
    "copy": "<p>The 18-month project is focused on ensuring Osage Energy Center continues to provide dependable energy for the community.</p><p><a href=\"#\">View on Facebook</a></p>"
  },
  {
    "title": "In the Community",
    "url": "#",
    "image": {
      "src": "//dev.perficientdigital.com/ameren-mobile-first/assets/images/content/group.png",
      "alt": "Image 3"
    },
    "copy": "<p>We're proud to suppor teh Boys & Girls Club of Jefferson City and honored to help turn on the Beacon of Light at the grand opening of the new facility.</p><p><a href=\"#\">View on Facebook</a></p>"
  }
]
