﻿{
  "dropdownlist": [
    {
      "id": "0",
      "dropvalue": "Please select a security question"
    },
    {
      "id": "1",
      "dropvalue": "Favorite restaurant"
    },
    {
      "id": "2",
      "dropvalue": "Favorite book"
    },
    {
      "id": "3",
      "dropvalue": "Favorite childhood friend"
    },
    {
      "id": "4",
      "dropvalue": "Favorite city"
    },
    {
      "id": "5",
      "dropvalue": "Model of your first car"
    },
    {
      "id": "6",
      "dropvalue": "City or Town of your first job"
    },
    {
      "id": "7",
      "dropvalue": "City where your nearest sibling lives"
    }
  ]
}